-- Merging decision tree log ---
application
INJECTED from /home/yarestark/dev/tsp/appiteracion2/ahorro_virtuales/android/app/src/main/AndroidManifest.xml:3:4-34:19
MERGED from [:url_launcher_android] /home/yarestark/dev/tsp/appiteracion2/ahorro_virtuales/build/url_launcher_android/intermediates/merged_manifest/debug/AndroidManifest.xml:9:5-14:19
MERGED from [:url_launcher_android] /home/yarestark/dev/tsp/appiteracion2/ahorro_virtuales/build/url_launcher_android/intermediates/merged_manifest/debug/AndroidManifest.xml:9:5-14:19
MERGED from [androidx.window:window:1.0.0-beta04] /home/yarestark/.gradle/caches/transforms-3/dee59bb480020f42d53c2ea15e4501f7/transformed/jetified-window-1.0.0-beta04/AndroidManifest.xml:24:5-31:19
MERGED from [androidx.window:window:1.0.0-beta04] /home/yarestark/.gradle/caches/transforms-3/dee59bb480020f42d53c2ea15e4501f7/transformed/jetified-window-1.0.0-beta04/AndroidManifest.xml:24:5-31:19
MERGED from [androidx.core:core:1.10.1] /home/yarestark/.gradle/caches/transforms-3/9c9ab1a476c120097a79d748cec7161f/transformed/core-1.10.1/AndroidManifest.xml:28:5-89
MERGED from [androidx.core:core:1.10.1] /home/yarestark/.gradle/caches/transforms-3/9c9ab1a476c120097a79d748cec7161f/transformed/core-1.10.1/AndroidManifest.xml:28:5-89
MERGED from [androidx.versionedparcelable:versionedparcelable:1.1.1] /home/yarestark/.gradle/caches/transforms-3/5abdc06e026f2f7b9b89c25dcd7a6d7e/transformed/versionedparcelable-1.1.1/AndroidManifest.xml:24:5-25:19
MERGED from [androidx.versionedparcelable:versionedparcelable:1.1.1] /home/yarestark/.gradle/caches/transforms-3/5abdc06e026f2f7b9b89c25dcd7a6d7e/transformed/versionedparcelable-1.1.1/AndroidManifest.xml:24:5-25:19
	android:appComponentFactory
		ADDED from [androidx.core:core:1.10.1] /home/yarestark/.gradle/caches/transforms-3/9c9ab1a476c120097a79d748cec7161f/transformed/core-1.10.1/AndroidManifest.xml:28:18-86
	android:name
		INJECTED from /home/yarestark/dev/tsp/appiteracion2/ahorro_virtuales/android/app/src/main/AndroidManifest.xml
manifest
ADDED from /home/yarestark/dev/tsp/appiteracion2/ahorro_virtuales/android/app/src/main/AndroidManifest.xml:1:1-35:12
INJECTED from /home/yarestark/dev/tsp/appiteracion2/ahorro_virtuales/android/app/src/main/AndroidManifest.xml:1:1-35:12
INJECTED from /home/yarestark/dev/tsp/appiteracion2/ahorro_virtuales/android/app/src/main/AndroidManifest.xml:1:1-35:12
INJECTED from /home/yarestark/dev/tsp/appiteracion2/ahorro_virtuales/android/app/src/main/AndroidManifest.xml:1:1-35:12
MERGED from /home/yarestark/dev/tsp/appiteracion2/ahorro_virtuales/android/app/src/main/AndroidManifest.xml:1:1-35:12
MERGED from [:sqflite] /home/yarestark/dev/tsp/appiteracion2/ahorro_virtuales/build/sqflite/intermediates/merged_manifest/debug/AndroidManifest.xml:2:1-9:12
MERGED from [:url_launcher_android] /home/yarestark/dev/tsp/appiteracion2/ahorro_virtuales/build/url_launcher_android/intermediates/merged_manifest/debug/AndroidManifest.xml:2:1-16:12
MERGED from [androidx.window:window-java:1.0.0-beta04] /home/yarestark/.gradle/caches/transforms-3/006d93cd422dbc43e89591147c2de572/transformed/jetified-window-java-1.0.0-beta04/AndroidManifest.xml:17:1-23:12
MERGED from [androidx.window:window:1.0.0-beta04] /home/yarestark/.gradle/caches/transforms-3/dee59bb480020f42d53c2ea15e4501f7/transformed/jetified-window-1.0.0-beta04/AndroidManifest.xml:17:1-33:12
MERGED from [androidx.fragment:fragment:1.1.0] /home/yarestark/.gradle/caches/transforms-3/9354257804af8250f2ffb7c22e2892d5/transformed/fragment-1.1.0/AndroidManifest.xml:17:1-24:12
MERGED from [androidx.viewpager:viewpager:1.0.0] /home/yarestark/.gradle/caches/transforms-3/f156363817d5f71529d60b6716392550/transformed/viewpager-1.0.0/AndroidManifest.xml:17:1-22:12
MERGED from [androidx.loader:loader:1.0.0] /home/yarestark/.gradle/caches/transforms-3/cf24d35e50a727536c7357721dc007c5/transformed/loader-1.0.0/AndroidManifest.xml:17:1-22:12
MERGED from [androidx.activity:activity:1.0.0] /home/yarestark/.gradle/caches/transforms-3/252fc848d5aa6e267df5e6907a023aed/transformed/jetified-activity-1.0.0/AndroidManifest.xml:17:1-24:12
MERGED from [androidx.customview:customview:1.0.0] /home/yarestark/.gradle/caches/transforms-3/f4c2d181f9683c57f8970b9ce7785060/transformed/customview-1.0.0/AndroidManifest.xml:17:1-22:12
MERGED from [androidx.core:core:1.10.1] /home/yarestark/.gradle/caches/transforms-3/9c9ab1a476c120097a79d748cec7161f/transformed/core-1.10.1/AndroidManifest.xml:17:1-30:12
MERGED from [androidx.annotation:annotation-experimental:1.3.0] /home/yarestark/.gradle/caches/transforms-3/ec10578641139d45a328c567f48881a1/transformed/jetified-annotation-experimental-1.3.0/AndroidManifest.xml:17:1-22:12
MERGED from [androidx.tracing:tracing:1.0.0] /home/yarestark/.gradle/caches/transforms-3/5b75d2e6479f13c5aed7d8001da507c0/transformed/jetified-tracing-1.0.0/AndroidManifest.xml:17:1-24:12
MERGED from [androidx.lifecycle:lifecycle-runtime:2.3.1] /home/yarestark/.gradle/caches/transforms-3/76da31ad033c53187dd7271282d0f7d2/transformed/lifecycle-runtime-2.3.1/AndroidManifest.xml:17:1-24:12
MERGED from [androidx.interpolator:interpolator:1.0.0] /home/yarestark/.gradle/caches/transforms-3/0ba9c48dd5ff84ca64a6f8c4dc29ae01/transformed/interpolator-1.0.0/AndroidManifest.xml:17:1-22:12
MERGED from [androidx.versionedparcelable:versionedparcelable:1.1.1] /home/yarestark/.gradle/caches/transforms-3/5abdc06e026f2f7b9b89c25dcd7a6d7e/transformed/versionedparcelable-1.1.1/AndroidManifest.xml:17:1-27:12
MERGED from [androidx.savedstate:savedstate:1.0.0] /home/yarestark/.gradle/caches/transforms-3/95578c0d327ed1d1ac84d08493ede1cf/transformed/jetified-savedstate-1.0.0/AndroidManifest.xml:17:1-24:12
MERGED from [androidx.lifecycle:lifecycle-livedata:2.0.0] /home/yarestark/.gradle/caches/transforms-3/7f4e81502f72dd837dc1e0ddcbb11c26/transformed/lifecycle-livedata-2.0.0/AndroidManifest.xml:17:1-22:12
MERGED from [androidx.lifecycle:lifecycle-livedata-core:2.0.0] /home/yarestark/.gradle/caches/transforms-3/3343d1c6adfed9e861db7c3f7f2df83a/transformed/lifecycle-livedata-core-2.0.0/AndroidManifest.xml:17:1-22:12
MERGED from [androidx.arch.core:core-runtime:2.1.0] /home/yarestark/.gradle/caches/transforms-3/56ea02d67edbb15aea212f39ccb5db78/transformed/core-runtime-2.1.0/AndroidManifest.xml:17:1-24:12
MERGED from [androidx.lifecycle:lifecycle-viewmodel:2.1.0] /home/yarestark/.gradle/caches/transforms-3/282676124ae0776b5645a1cee909808d/transformed/lifecycle-viewmodel-2.1.0/AndroidManifest.xml:17:1-22:12
INJECTED from /home/yarestark/dev/tsp/appiteracion2/ahorro_virtuales/android/app/src/debug/AndroidManifest.xml:1:1-8:12
INJECTED from /home/yarestark/dev/tsp/appiteracion2/ahorro_virtuales/android/app/src/debug/AndroidManifest.xml:1:1-8:12
INJECTED from /home/yarestark/dev/tsp/appiteracion2/ahorro_virtuales/android/app/src/debug/AndroidManifest.xml:1:1-8:12
	package
		ADDED from /home/yarestark/dev/tsp/appiteracion2/ahorro_virtuales/android/app/src/main/AndroidManifest.xml:2:5-43
		INJECTED from /home/yarestark/dev/tsp/appiteracion2/ahorro_virtuales/android/app/src/main/AndroidManifest.xml
		INJECTED from /home/yarestark/dev/tsp/appiteracion2/ahorro_virtuales/android/app/src/debug/AndroidManifest.xml
	android:versionName
		INJECTED from /home/yarestark/dev/tsp/appiteracion2/ahorro_virtuales/android/app/src/main/AndroidManifest.xml
		ADDED from /home/yarestark/dev/tsp/appiteracion2/ahorro_virtuales/android/app/src/main/AndroidManifest.xml:1:1-35:12
		INJECTED from /home/yarestark/dev/tsp/appiteracion2/ahorro_virtuales/android/app/src/debug/AndroidManifest.xml
	android:versionCode
		INJECTED from /home/yarestark/dev/tsp/appiteracion2/ahorro_virtuales/android/app/src/main/AndroidManifest.xml
		ADDED from /home/yarestark/dev/tsp/appiteracion2/ahorro_virtuales/android/app/src/main/AndroidManifest.xml:1:1-35:12
		INJECTED from /home/yarestark/dev/tsp/appiteracion2/ahorro_virtuales/android/app/src/debug/AndroidManifest.xml
	xmlns:android
		ADDED from /home/yarestark/dev/tsp/appiteracion2/ahorro_virtuales/android/app/src/main/AndroidManifest.xml:1:11-69
uses-sdk
INJECTED from /home/yarestark/dev/tsp/appiteracion2/ahorro_virtuales/android/app/src/main/AndroidManifest.xml reason: use-sdk injection requested
INJECTED from /home/yarestark/dev/tsp/appiteracion2/ahorro_virtuales/android/app/src/main/AndroidManifest.xml
INJECTED from /home/yarestark/dev/tsp/appiteracion2/ahorro_virtuales/android/app/src/main/AndroidManifest.xml
MERGED from [:sqflite] /home/yarestark/dev/tsp/appiteracion2/ahorro_virtuales/build/sqflite/intermediates/merged_manifest/debug/AndroidManifest.xml:5:5-7:41
MERGED from [:sqflite] /home/yarestark/dev/tsp/appiteracion2/ahorro_virtuales/build/sqflite/intermediates/merged_manifest/debug/AndroidManifest.xml:5:5-7:41
MERGED from [:url_launcher_android] /home/yarestark/dev/tsp/appiteracion2/ahorro_virtuales/build/url_launcher_android/intermediates/merged_manifest/debug/AndroidManifest.xml:5:5-7:41
MERGED from [:url_launcher_android] /home/yarestark/dev/tsp/appiteracion2/ahorro_virtuales/build/url_launcher_android/intermediates/merged_manifest/debug/AndroidManifest.xml:5:5-7:41
MERGED from [androidx.window:window-java:1.0.0-beta04] /home/yarestark/.gradle/caches/transforms-3/006d93cd422dbc43e89591147c2de572/transformed/jetified-window-java-1.0.0-beta04/AndroidManifest.xml:19:5-21:41
MERGED from [androidx.window:window-java:1.0.0-beta04] /home/yarestark/.gradle/caches/transforms-3/006d93cd422dbc43e89591147c2de572/transformed/jetified-window-java-1.0.0-beta04/AndroidManifest.xml:19:5-21:41
MERGED from [androidx.window:window:1.0.0-beta04] /home/yarestark/.gradle/caches/transforms-3/dee59bb480020f42d53c2ea15e4501f7/transformed/jetified-window-1.0.0-beta04/AndroidManifest.xml:20:5-22:41
MERGED from [androidx.window:window:1.0.0-beta04] /home/yarestark/.gradle/caches/transforms-3/dee59bb480020f42d53c2ea15e4501f7/transformed/jetified-window-1.0.0-beta04/AndroidManifest.xml:20:5-22:41
MERGED from [androidx.fragment:fragment:1.1.0] /home/yarestark/.gradle/caches/transforms-3/9354257804af8250f2ffb7c22e2892d5/transformed/fragment-1.1.0/AndroidManifest.xml:20:5-22:41
MERGED from [androidx.fragment:fragment:1.1.0] /home/yarestark/.gradle/caches/transforms-3/9354257804af8250f2ffb7c22e2892d5/transformed/fragment-1.1.0/AndroidManifest.xml:20:5-22:41
MERGED from [androidx.viewpager:viewpager:1.0.0] /home/yarestark/.gradle/caches/transforms-3/f156363817d5f71529d60b6716392550/transformed/viewpager-1.0.0/AndroidManifest.xml:20:5-44
MERGED from [androidx.viewpager:viewpager:1.0.0] /home/yarestark/.gradle/caches/transforms-3/f156363817d5f71529d60b6716392550/transformed/viewpager-1.0.0/AndroidManifest.xml:20:5-44
MERGED from [androidx.loader:loader:1.0.0] /home/yarestark/.gradle/caches/transforms-3/cf24d35e50a727536c7357721dc007c5/transformed/loader-1.0.0/AndroidManifest.xml:20:5-44
MERGED from [androidx.loader:loader:1.0.0] /home/yarestark/.gradle/caches/transforms-3/cf24d35e50a727536c7357721dc007c5/transformed/loader-1.0.0/AndroidManifest.xml:20:5-44
MERGED from [androidx.activity:activity:1.0.0] /home/yarestark/.gradle/caches/transforms-3/252fc848d5aa6e267df5e6907a023aed/transformed/jetified-activity-1.0.0/AndroidManifest.xml:20:5-22:41
MERGED from [androidx.activity:activity:1.0.0] /home/yarestark/.gradle/caches/transforms-3/252fc848d5aa6e267df5e6907a023aed/transformed/jetified-activity-1.0.0/AndroidManifest.xml:20:5-22:41
MERGED from [androidx.customview:customview:1.0.0] /home/yarestark/.gradle/caches/transforms-3/f4c2d181f9683c57f8970b9ce7785060/transformed/customview-1.0.0/AndroidManifest.xml:20:5-44
MERGED from [androidx.customview:customview:1.0.0] /home/yarestark/.gradle/caches/transforms-3/f4c2d181f9683c57f8970b9ce7785060/transformed/customview-1.0.0/AndroidManifest.xml:20:5-44
MERGED from [androidx.core:core:1.10.1] /home/yarestark/.gradle/caches/transforms-3/9c9ab1a476c120097a79d748cec7161f/transformed/core-1.10.1/AndroidManifest.xml:20:5-44
MERGED from [androidx.core:core:1.10.1] /home/yarestark/.gradle/caches/transforms-3/9c9ab1a476c120097a79d748cec7161f/transformed/core-1.10.1/AndroidManifest.xml:20:5-44
MERGED from [androidx.annotation:annotation-experimental:1.3.0] /home/yarestark/.gradle/caches/transforms-3/ec10578641139d45a328c567f48881a1/transformed/jetified-annotation-experimental-1.3.0/AndroidManifest.xml:20:5-44
MERGED from [androidx.annotation:annotation-experimental:1.3.0] /home/yarestark/.gradle/caches/transforms-3/ec10578641139d45a328c567f48881a1/transformed/jetified-annotation-experimental-1.3.0/AndroidManifest.xml:20:5-44
MERGED from [androidx.tracing:tracing:1.0.0] /home/yarestark/.gradle/caches/transforms-3/5b75d2e6479f13c5aed7d8001da507c0/transformed/jetified-tracing-1.0.0/AndroidManifest.xml:20:5-22:41
MERGED from [androidx.tracing:tracing:1.0.0] /home/yarestark/.gradle/caches/transforms-3/5b75d2e6479f13c5aed7d8001da507c0/transformed/jetified-tracing-1.0.0/AndroidManifest.xml:20:5-22:41
MERGED from [androidx.lifecycle:lifecycle-runtime:2.3.1] /home/yarestark/.gradle/caches/transforms-3/76da31ad033c53187dd7271282d0f7d2/transformed/lifecycle-runtime-2.3.1/AndroidManifest.xml:20:5-22:41
MERGED from [androidx.lifecycle:lifecycle-runtime:2.3.1] /home/yarestark/.gradle/caches/transforms-3/76da31ad033c53187dd7271282d0f7d2/transformed/lifecycle-runtime-2.3.1/AndroidManifest.xml:20:5-22:41
MERGED from [androidx.interpolator:interpolator:1.0.0] /home/yarestark/.gradle/caches/transforms-3/0ba9c48dd5ff84ca64a6f8c4dc29ae01/transformed/interpolator-1.0.0/AndroidManifest.xml:20:5-44
MERGED from [androidx.interpolator:interpolator:1.0.0] /home/yarestark/.gradle/caches/transforms-3/0ba9c48dd5ff84ca64a6f8c4dc29ae01/transformed/interpolator-1.0.0/AndroidManifest.xml:20:5-44
MERGED from [androidx.versionedparcelable:versionedparcelable:1.1.1] /home/yarestark/.gradle/caches/transforms-3/5abdc06e026f2f7b9b89c25dcd7a6d7e/transformed/versionedparcelable-1.1.1/AndroidManifest.xml:20:5-22:41
MERGED from [androidx.versionedparcelable:versionedparcelable:1.1.1] /home/yarestark/.gradle/caches/transforms-3/5abdc06e026f2f7b9b89c25dcd7a6d7e/transformed/versionedparcelable-1.1.1/AndroidManifest.xml:20:5-22:41
MERGED from [androidx.savedstate:savedstate:1.0.0] /home/yarestark/.gradle/caches/transforms-3/95578c0d327ed1d1ac84d08493ede1cf/transformed/jetified-savedstate-1.0.0/AndroidManifest.xml:20:5-22:41
MERGED from [androidx.savedstate:savedstate:1.0.0] /home/yarestark/.gradle/caches/transforms-3/95578c0d327ed1d1ac84d08493ede1cf/transformed/jetified-savedstate-1.0.0/AndroidManifest.xml:20:5-22:41
MERGED from [androidx.lifecycle:lifecycle-livedata:2.0.0] /home/yarestark/.gradle/caches/transforms-3/7f4e81502f72dd837dc1e0ddcbb11c26/transformed/lifecycle-livedata-2.0.0/AndroidManifest.xml:20:5-44
MERGED from [androidx.lifecycle:lifecycle-livedata:2.0.0] /home/yarestark/.gradle/caches/transforms-3/7f4e81502f72dd837dc1e0ddcbb11c26/transformed/lifecycle-livedata-2.0.0/AndroidManifest.xml:20:5-44
MERGED from [androidx.lifecycle:lifecycle-livedata-core:2.0.0] /home/yarestark/.gradle/caches/transforms-3/3343d1c6adfed9e861db7c3f7f2df83a/transformed/lifecycle-livedata-core-2.0.0/AndroidManifest.xml:20:5-44
MERGED from [androidx.lifecycle:lifecycle-livedata-core:2.0.0] /home/yarestark/.gradle/caches/transforms-3/3343d1c6adfed9e861db7c3f7f2df83a/transformed/lifecycle-livedata-core-2.0.0/AndroidManifest.xml:20:5-44
MERGED from [androidx.arch.core:core-runtime:2.1.0] /home/yarestark/.gradle/caches/transforms-3/56ea02d67edbb15aea212f39ccb5db78/transformed/core-runtime-2.1.0/AndroidManifest.xml:20:5-22:41
MERGED from [androidx.arch.core:core-runtime:2.1.0] /home/yarestark/.gradle/caches/transforms-3/56ea02d67edbb15aea212f39ccb5db78/transformed/core-runtime-2.1.0/AndroidManifest.xml:20:5-22:41
MERGED from [androidx.lifecycle:lifecycle-viewmodel:2.1.0] /home/yarestark/.gradle/caches/transforms-3/282676124ae0776b5645a1cee909808d/transformed/lifecycle-viewmodel-2.1.0/AndroidManifest.xml:20:5-44
MERGED from [androidx.lifecycle:lifecycle-viewmodel:2.1.0] /home/yarestark/.gradle/caches/transforms-3/282676124ae0776b5645a1cee909808d/transformed/lifecycle-viewmodel-2.1.0/AndroidManifest.xml:20:5-44
INJECTED from /home/yarestark/dev/tsp/appiteracion2/ahorro_virtuales/android/app/src/debug/AndroidManifest.xml
INJECTED from /home/yarestark/dev/tsp/appiteracion2/ahorro_virtuales/android/app/src/debug/AndroidManifest.xml
	android:targetSdkVersion
		INJECTED from /home/yarestark/dev/tsp/appiteracion2/ahorro_virtuales/android/app/src/main/AndroidManifest.xml
		INJECTED from /home/yarestark/dev/tsp/appiteracion2/ahorro_virtuales/android/app/src/debug/AndroidManifest.xml
	android:minSdkVersion
		INJECTED from /home/yarestark/dev/tsp/appiteracion2/ahorro_virtuales/android/app/src/main/AndroidManifest.xml
		INJECTED from /home/yarestark/dev/tsp/appiteracion2/ahorro_virtuales/android/app/src/debug/AndroidManifest.xml
uses-permission#android.permission.INTERNET
ADDED from /home/yarestark/dev/tsp/appiteracion2/ahorro_virtuales/android/app/src/debug/AndroidManifest.xml:7:5-66
	android:name
		ADDED from /home/yarestark/dev/tsp/appiteracion2/ahorro_virtuales/android/app/src/debug/AndroidManifest.xml:7:22-64
activity#io.flutter.plugins.urllauncher.WebViewActivity
ADDED from [:url_launcher_android] /home/yarestark/dev/tsp/appiteracion2/ahorro_virtuales/build/url_launcher_android/intermediates/merged_manifest/debug/AndroidManifest.xml:10:9-13:74
	android:exported
		ADDED from [:url_launcher_android] /home/yarestark/dev/tsp/appiteracion2/ahorro_virtuales/build/url_launcher_android/intermediates/merged_manifest/debug/AndroidManifest.xml:12:13-37
	android:theme
		ADDED from [:url_launcher_android] /home/yarestark/dev/tsp/appiteracion2/ahorro_virtuales/build/url_launcher_android/intermediates/merged_manifest/debug/AndroidManifest.xml:13:13-71
	android:name
		ADDED from [:url_launcher_android] /home/yarestark/dev/tsp/appiteracion2/ahorro_virtuales/build/url_launcher_android/intermediates/merged_manifest/debug/AndroidManifest.xml:11:13-74
uses-library#androidx.window.extensions
ADDED from [androidx.window:window:1.0.0-beta04] /home/yarestark/.gradle/caches/transforms-3/dee59bb480020f42d53c2ea15e4501f7/transformed/jetified-window-1.0.0-beta04/AndroidManifest.xml:25:9-27:40
	android:required
		ADDED from [androidx.window:window:1.0.0-beta04] /home/yarestark/.gradle/caches/transforms-3/dee59bb480020f42d53c2ea15e4501f7/transformed/jetified-window-1.0.0-beta04/AndroidManifest.xml:27:13-37
	android:name
		ADDED from [androidx.window:window:1.0.0-beta04] /home/yarestark/.gradle/caches/transforms-3/dee59bb480020f42d53c2ea15e4501f7/transformed/jetified-window-1.0.0-beta04/AndroidManifest.xml:26:13-54
uses-library#androidx.window.sidecar
ADDED from [androidx.window:window:1.0.0-beta04] /home/yarestark/.gradle/caches/transforms-3/dee59bb480020f42d53c2ea15e4501f7/transformed/jetified-window-1.0.0-beta04/AndroidManifest.xml:28:9-30:40
	android:required
		ADDED from [androidx.window:window:1.0.0-beta04] /home/yarestark/.gradle/caches/transforms-3/dee59bb480020f42d53c2ea15e4501f7/transformed/jetified-window-1.0.0-beta04/AndroidManifest.xml:30:13-37
	android:name
		ADDED from [androidx.window:window:1.0.0-beta04] /home/yarestark/.gradle/caches/transforms-3/dee59bb480020f42d53c2ea15e4501f7/transformed/jetified-window-1.0.0-beta04/AndroidManifest.xml:29:13-51
permission#${applicationId}.DYNAMIC_RECEIVER_NOT_EXPORTED_PERMISSION
ADDED from [androidx.core:core:1.10.1] /home/yarestark/.gradle/caches/transforms-3/9c9ab1a476c120097a79d748cec7161f/transformed/core-1.10.1/AndroidManifest.xml:22:5-24:47
	android:protectionLevel
		ADDED from [androidx.core:core:1.10.1] /home/yarestark/.gradle/caches/transforms-3/9c9ab1a476c120097a79d748cec7161f/transformed/core-1.10.1/AndroidManifest.xml:24:9-44
	android:name
		ADDED from [androidx.core:core:1.10.1] /home/yarestark/.gradle/caches/transforms-3/9c9ab1a476c120097a79d748cec7161f/transformed/core-1.10.1/AndroidManifest.xml:23:9-81
permission#com.example.ahorro_virtuales.DYNAMIC_RECEIVER_NOT_EXPORTED_PERMISSION
ADDED from [androidx.core:core:1.10.1] /home/yarestark/.gradle/caches/transforms-3/9c9ab1a476c120097a79d748cec7161f/transformed/core-1.10.1/AndroidManifest.xml:22:5-24:47
	android:protectionLevel
		ADDED from [androidx.core:core:1.10.1] /home/yarestark/.gradle/caches/transforms-3/9c9ab1a476c120097a79d748cec7161f/transformed/core-1.10.1/AndroidManifest.xml:24:9-44
	android:name
		ADDED from [androidx.core:core:1.10.1] /home/yarestark/.gradle/caches/transforms-3/9c9ab1a476c120097a79d748cec7161f/transformed/core-1.10.1/AndroidManifest.xml:23:9-81
uses-permission#${applicationId}.DYNAMIC_RECEIVER_NOT_EXPORTED_PERMISSION
ADDED from [androidx.core:core:1.10.1] /home/yarestark/.gradle/caches/transforms-3/9c9ab1a476c120097a79d748cec7161f/transformed/core-1.10.1/AndroidManifest.xml:26:5-97
	android:name
		ADDED from [androidx.core:core:1.10.1] /home/yarestark/.gradle/caches/transforms-3/9c9ab1a476c120097a79d748cec7161f/transformed/core-1.10.1/AndroidManifest.xml:26:22-94
uses-permission#com.example.ahorro_virtuales.DYNAMIC_RECEIVER_NOT_EXPORTED_PERMISSION
ADDED from [androidx.core:core:1.10.1] /home/yarestark/.gradle/caches/transforms-3/9c9ab1a476c120097a79d748cec7161f/transformed/core-1.10.1/AndroidManifest.xml:26:5-97
	android:name
		ADDED from [androidx.core:core:1.10.1] /home/yarestark/.gradle/caches/transforms-3/9c9ab1a476c120097a79d748cec7161f/transformed/core-1.10.1/AndroidManifest.xml:26:22-94
